simulation/qsim/project.msim.vcd
$comment
	File created using the following command:
		vcd file project.msim.vcd -direction
$end
$date
	Wed Dec 08 02:56:51 2021
$end
$version
	ModelSim Version 10.1d
$end
$timescale
	1ps
$end
$scope module receiver_vlg_vec_tst $end
$var reg 1 ! bclk $end
$var reg 1 " GReset $end
$var reg 1 # RxD $end
$var wire 1 $ RDR [7] $end
$var wire 1 % RDR [6] $end
$var wire 1 & RDR [5] $end
$var wire 1 ' RDR [4] $end
$var wire 1 ( RDR [3] $end
$var wire 1 ) RDR [2] $end
$var wire 1 * RDR [1] $end
$var wire 1 + RDR [0] $end
$var wire 1 , set_RDRF $end
$var wire 1 - states [3] $end
$var wire 1 . states [2] $end
$var wire 1 / states [1] $end
$var wire 1 0 states [0] $end
$var wire 1 1 test_out_clock4 $end
$var wire 1 2 test_out_clock8 $end
$var wire 1 3 test_out_doneshi $end
$var wire 1 4 sampler $end
$scope module i1 $end
$var wire 1 5 gnd $end
$var wire 1 6 vcc $end
$var wire 1 7 unknown $end
$var tri1 1 8 devclrn $end
$var tri1 1 9 devpor $end
$var tri1 1 : devoe $end
$var wire 1 ; clock_divde_8|Count[7]~21_combout $end
$var wire 1 < clock_divde_4|Count[2]~10_combout $end
$var wire 1 = clock_divde_4|Count[6]~20 $end
$var wire 1 > clock_divde_4|Count[7]~21_combout $end
$var wire 1 ? clock_divde_4|Count[7]~22 $end
$var wire 1 @ clock_divde_4|Count[8]~23_combout $end
$var wire 1 A sampling_counter|b2|int_q~q $end
$var wire 1 B clock_divde_4|o~_emulated_q $end
$var wire 1 C state_sig1|int_q~0_combout $end
$var wire 1 D clock_divde_8|output~1_combout $end
$var wire 1 E clock_divde_4|o~0_combout $end
$var wire 1 F sampling_counter|b2|int_q~0_combout $end
$var wire 1 G sampling_counter|b3|int_q~0_combout $end
$var wire 1 H GReset~input_o $end
$var wire 1 I bclk~input_o $end
$var wire 1 J bclk~inputclkctrl_outclk $end
$var wire 1 K test_out_clock8~output_o $end
$var wire 1 L test_out_clock4~output_o $end
$var wire 1 M test_out_doneshi~output_o $end
$var wire 1 N RDR[0]~output_o $end
$var wire 1 O RDR[1]~output_o $end
$var wire 1 P RDR[2]~output_o $end
$var wire 1 Q RDR[3]~output_o $end
$var wire 1 R RDR[4]~output_o $end
$var wire 1 S RDR[5]~output_o $end
$var wire 1 T RDR[6]~output_o $end
$var wire 1 U RDR[7]~output_o $end
$var wire 1 V states[0]~output_o $end
$var wire 1 W states[1]~output_o $end
$var wire 1 X states[2]~output_o $end
$var wire 1 Y states[3]~output_o $end
$var wire 1 Z set_RDRF~output_o $end
$var wire 1 [ sampling_counter|msb|int_q~0_combout $end
$var wire 1 \ sampling_counter|msb|int_q~feeder_combout $end
$var wire 1 ] sampling_counter|lsb|int_q~0_combout $end
$var wire 1 ^ sampling_counter|lsb|int_q~q $end
$var wire 1 _ sampling_counter|b3|int_q~feeder_combout $end
$var wire 1 ` sampling_counter|b3|int_q~q $end
$var wire 1 a sampling_counter|o~0_combout $end
$var wire 1 b state_sig1|int_q~1_combout $end
$var wire 1 c RxD~input_o $end
$var wire 1 d st0~0_combout $end
$var wire 1 e state_sig3|int_q~0_combout $end
$var wire 1 f state_sig3|int_q~1_combout $end
$var wire 1 g state_sig3|int_q~q $end
$var wire 1 h st3~0_combout $end
$var wire 1 i stabl~1_combout $end
$var wire 1 j start_bx4~combout $end
$var wire 1 k clock_divde_4|Count[0]~25_combout $end
$var wire 1 l clock_divde_4|Count[8]~12_combout $end
$var wire 1 m clock_divde_4|Count[1]~9 $end
$var wire 1 n clock_divde_4|Count[2]~11 $end
$var wire 1 o clock_divde_4|Count[3]~13_combout $end
$var wire 1 p clock_divde_4|Count[1]~8_combout $end
$var wire 1 q clock_divde_4|output~0_combout $end
$var wire 1 r clock_divde_4|Count[3]~14 $end
$var wire 1 s clock_divde_4|Count[4]~15_combout $end
$var wire 1 t clock_divde_4|Count[4]~16 $end
$var wire 1 u clock_divde_4|Count[5]~17_combout $end
$var wire 1 v clock_divde_4|Count[5]~18 $end
$var wire 1 w clock_divde_4|Count[6]~19_combout $end
$var wire 1 x clock_divde_4|output~1_combout $end
$var wire 1 y clock_divde_4|output~2_combout $end
$var wire 1 z clock_divde_4|o~1_combout $end
$var wire 1 { clock_divde_4|o~2_combout $end
$var wire 1 | stabl~0_combout $end
$var wire 1 } stabl~2_combout $end
$var wire 1 ~ state_sig1|int_q~2_combout $end
$var wire 1 !! state_sig1|int_q~q $end
$var wire 1 "! start_shifting~0_combout $end
$var wire 1 #! state_sig4|int_q~0_combout $end
$var wire 1 $! state_sig4|int_q~1_combout $end
$var wire 1 %! state_sig4|int_q~q $end
$var wire 1 &! start_count~0_combout $end
$var wire 1 '! sampling_counter|msb|int_q~q $end
$var wire 1 (! state_sig2|int_q~0_combout $end
$var wire 1 )! st1~0_combout $end
$var wire 1 *! state_sig2|int_q~1_combout $end
$var wire 1 +! state_sig2|int_q~2_combout $end
$var wire 1 ,! state_sig2|int_q~q $end
$var wire 1 -! start_shifting~1_combout $end
$var wire 1 .! clock_divde_8|o~1_combout $end
$var wire 1 /! clock_divde_8|Count[1]~8_combout $end
$var wire 1 0! clock_divde_8|Count[8]~14_combout $end
$var wire 1 1! clock_divde_8|Count[1]~9 $end
$var wire 1 2! clock_divde_8|Count[2]~10_combout $end
$var wire 1 3! clock_divde_8|Count[2]~11 $end
$var wire 1 4! clock_divde_8|Count[3]~12_combout $end
$var wire 1 5! clock_divde_8|Count[0]~25_combout $end
$var wire 1 6! clock_divde_8|output~0_combout $end
$var wire 1 7! clock_divde_8|Count[3]~13 $end
$var wire 1 8! clock_divde_8|Count[4]~15_combout $end
$var wire 1 9! clock_divde_8|Count[4]~16 $end
$var wire 1 :! clock_divde_8|Count[5]~17_combout $end
$var wire 1 ;! clock_divde_8|Count[5]~18 $end
$var wire 1 <! clock_divde_8|Count[6]~19_combout $end
$var wire 1 =! clock_divde_8|Count[6]~20 $end
$var wire 1 >! clock_divde_8|Count[7]~22 $end
$var wire 1 ?! clock_divde_8|Count[8]~23_combout $end
$var wire 1 @! clock_divde_8|output~2_combout $end
$var wire 1 A! clock_divde_8|o~0_combout $end
$var wire 1 B! clock_divde_8|o~_emulated_q $end
$var wire 1 C! clock_divde_8|o~2_combout $end
$var wire 1 D! clock_divde_4|Count [8] $end
$var wire 1 E! clock_divde_4|Count [7] $end
$var wire 1 F! clock_divde_4|Count [6] $end
$var wire 1 G! clock_divde_4|Count [5] $end
$var wire 1 H! clock_divde_4|Count [4] $end
$var wire 1 I! clock_divde_4|Count [3] $end
$var wire 1 J! clock_divde_4|Count [2] $end
$var wire 1 K! clock_divde_4|Count [1] $end
$var wire 1 L! clock_divde_4|Count [0] $end
$var wire 1 M! clock_divde_8|Count [8] $end
$var wire 1 N! clock_divde_8|Count [7] $end
$var wire 1 O! clock_divde_8|Count [6] $end
$var wire 1 P! clock_divde_8|Count [5] $end
$var wire 1 Q! clock_divde_8|Count [4] $end
$var wire 1 R! clock_divde_8|Count [3] $end
$var wire 1 S! clock_divde_8|Count [2] $end
$var wire 1 T! clock_divde_8|Count [1] $end
$var wire 1 U! clock_divde_8|Count [0] $end
$upscope $end
$upscope $end
$enddefinitions $end
#0
$dumpvars
0!
1"
1#
0+
0*
0)
0(
0'
0&
0%
0$
0,
00
0/
0.
0-
01
02
03
x4
05
16
x7
18
19
1:
0;
0<
1=
0>
0?
0@
0A
0B
0C
1D
1E
1F
1G
1H
0I
0J
0K
0L
0M
0N
0O
0P
0Q
0R
0S
0T
0U
0V
0W
0X
0Y
0Z
1[
1\
1]
0^
1_
0`
0a
0b
1c
0d
0e
0f
0g
0h
0i
0j
1k
1l
0m
1n
0o
0p
0q
0r
0s
1t
0u
0v
0w
1x
0y
0z
0{
0|
1}
0~
0!!
1"!
1#!
1$!
0%!
1&!
0'!
0(!
0)!
1*!
0+!
0,!
1-!
0.!
0/!
10!
01!
02!
13!
04!
15!
06!
07!
08!
19!
0:!
0;!
0<!
1=!
0>!
0?!
0@!
1A!
0B!
0C!
0L!
0K!
0J!
0I!
0H!
0G!
0F!
0E!
0D!
0U!
0T!
0S!
0R!
0Q!
0P!
0O!
0N!
0M!
$end
#300
0#
0c
04
#8500
1!
1I
1J
14
1%!
0-!
0"!
1j
1d
0A!
00!
0l
0E
1e
1V
10
#17000
0!
0I
0J
04
#25500
1!
1I
1J
14
1U!
1L!
05!
1/!
1p
0k
#34000
0!
0I
0J
04
#42500
1!
1I
1J
14
1T!
0U!
1K!
0L!
15!
1k
#51000
0!
0I
0J
04
#59500
1!
1I
1J
14
1U!
1L!
05!
11!
0/!
1m
0p
0k
12!
1<
#68000
0!
0I
0J
04
#76500
1!
1I
1J
14
1S!
0T!
0U!
0K!
0L!
1J!
03!
02!
01!
15!
1q
0m
1k
0n
0<
14!
13!
12!
1y
1n
1<
1o
04!
1z
1l
1E
0o
1{
1L
11
0J!
0q
0<
0y
0l
0E
#85000
0!
0I
0J
04
#93500
1!
1I
1J
14
1U!
1L!
1B
05!
1/!
1p
0k
0{
0L
01
#102000
0!
0I
0J
04
#110500
1!
1I
1J
14
1T!
0U!
1K!
0L!
15!
1k
#119000
0!
0I
0J
04
#127500
1!
1I
1J
14
1U!
1L!
05!
11!
0/!
1m
0p
0k
03!
02!
1<
14!
#136000
0!
0I
0J
04
#144500
1!
1I
1J
14
1R!
0S!
0T!
0U!
0K!
0L!
1J!
16!
17!
04!
13!
12!
01!
15!
1q
0m
1k
0n
0<
1@!
18!
07!
14!
02!
1y
1n
1<
1o
1A!
10!
1.!
08!
1l
1E
0o
1C!
1{
1i
1K
1L
12
11
0R!
0J!
0B
06!
04!
0q
0<
0@!
0y
0A!
00!
0l
0E
#150000
0"
0H
04
0#!
1C
0$!
1f
#153000
0!
0I
0J
14
#161500
1!
1I
1J
04
1B!
0%!
1g
1U!
1L!
1B
1"!
05!
1/!
1p
0k
0C!
1)!
0d
0{
0i
0C
0e
0K
1W
0V
0L
02
1/
00
01
0}
0f
1f
#170000
0!
0I
0J
14
#178500
1!
1I
1J
04
1T!
0U!
1K!
0L!
15!
1k
#187000
0!
0I
0J
14
#195500
1!
1I
1J
04
1U!
1L!
05!
11!
0/!
1m
0p
0k
12!
1<
#204000
0!
0I
0J
14
#212500
1!
1I
1J
04
1S!
0T!
0U!
0K!
0L!
1J!
03!
02!
01!
15!
1q
0m
1k
0n
0<
14!
13!
12!
1y
1n
1<
1o
04!
1l
1E
0o
1{
0*!
1L
11
0J!
0B
0q
0<
0y
0l
0E
#221000
0!
0I
0J
14
#229500
1!
1I
1J
04
1U!
1L!
1B
05!
1/!
1p
0k
0{
1*!
0L
01
#238000
0!
0I
0J
14
#246500
1!
1I
1J
04
1T!
0U!
1K!
0L!
15!
1k
#255000
0!
0I
0J
14
#263500
1!
1I
1J
04
1U!
1L!
05!
11!
0/!
1m
0p
0k
03!
02!
1<
14!
#272000
0!
0I
0J
14
#280500
1!
1I
1J
04
1R!
0S!
0T!
0U!
0K!
0L!
1J!
16!
17!
04!
13!
12!
01!
15!
1q
0m
1k
0n
0<
1@!
18!
07!
14!
02!
1y
1n
1<
1o
1A!
10!
08!
1l
1E
0o
1C!
1{
1|
1C
0*!
1K
1L
12
11
1}
1+!
0f
0B!
0R!
0J!
0B
06!
04!
0q
0<
0@!
0y
0A!
00!
0l
0E
#289000
0!
0I
0J
14
#297500
1!
1I
1J
04
1B!
1,!
0g
1U!
1L!
1B
0&!
0"!
0j
05!
1/!
1p
0k
0C!
0)!
0{
0z
1l
1E
0|
0C
1X
0K
0W
0L
1.
02
0/
01
0}
0+!
1+!
0L!
0B
0p
1k
#300300
1#
1c
14
1#!
1i
1}
0+!
1$!
#306000
0!
0I
0J
04
#314500
1!
1I
1J
14
1T!
0,!
1%!
0U!
1&!
1j
15!
1d
1*!
0l
0E
0X
1V
0.
10
#323000
0!
0I
0J
04
#331500
1!
1I
1J
14
1U!
1L!
05!
11!
0/!
1p
0k
12!
#340000
0!
0I
0J
04
#348500
1!
1I
1J
14
1S!
0T!
0U!
1K!
0L!
03!
02!
01!
15!
1k
14!
13!
12!
04!
#357000
0!
0I
0J
04
#365500
1!
1I
1J
14
1U!
1L!
05!
1/!
1m
0p
0k
1<
#374000
0!
0I
0J
04
#382500
1!
1I
1J
14
1T!
0U!
0K!
0L!
1J!
15!
1q
0m
1k
0n
0<
1y
1n
1<
1o
1z
1l
1E
0o
1{
1L
11
0J!
0q
0<
0y
0l
0E
#391000
0!
0I
0J
04
#399500
1!
1I
1J
14
1U!
1L!
1B
05!
11!
0/!
1p
0k
0{
03!
02!
0L
01
14!
#408000
0!
0I
0J
04
#416500
1!
1I
1J
14
1R!
0S!
0T!
0U!
1K!
0L!
16!
17!
04!
13!
12!
01!
15!
1k
1@!
18!
07!
14!
02!
1A!
10!
08!
1C!
1C
1K
12
0B!
0R!
06!
04!
0@!
0A!
00!
#425000
0!
0I
0J
04
#433500
1!
1I
1J
14
1B!
1U!
1L!
05!
1/!
1m
0p
0k
0C!
1<
0C
0K
02
#442000
0!
0I
0J
04
#450500
1!
1I
1J
14
1T!
0U!
0K!
0L!
1J!
15!
1q
0m
1k
0n
0<
1y
1n
1<
1o
1l
1E
0o
1{
1L
11
0J!
0B
0q
0<
0y
0l
0E
#459000
0!
0I
0J
04
#467500
1!
1I
1J
14
1U!
1L!
1B
05!
11!
0/!
1p
0k
0{
12!
0L
01
#476000
0!
0I
0J
04
#484500
1!
1I
1J
14
1S!
0T!
0U!
1K!
0L!
03!
02!
01!
15!
1k
14!
13!
12!
04!
#493000
0!
0I
0J
04
#501500
1!
1I
1J
14
1U!
1L!
05!
1/!
1m
0p
0k
1<
#510000
0!
0I
0J
04
#518500
1!
1I
1J
14
1T!
0U!
0K!
0L!
1J!
15!
1q
0m
1k
0n
0<
1y
1n
1<
1o
1l
1E
0o
1{
1L
11
0J!
0B
0q
0<
0y
0l
0E
#527000
0!
0I
0J
04
#535500
1!
1I
1J
14
1U!
1L!
1B
05!
11!
0/!
1p
0k
0{
03!
02!
0L
01
14!
#544000
0!
0I
0J
04
#552500
1!
1I
1J
14
1R!
0S!
0T!
0U!
1K!
0L!
16!
17!
04!
13!
12!
01!
15!
1k
1@!
18!
07!
14!
02!
1A!
10!
08!
1C!
1C
1K
12
0B!
0R!
06!
04!
0@!
0A!
00!
#561000
0!
0I
0J
04
#569500
1!
1I
1J
14
1B!
1U!
1L!
05!
1/!
1m
0p
0k
0C!
1<
0C
0K
02
#578000
0!
0I
0J
04
#586500
1!
1I
1J
14
1T!
0U!
0K!
0L!
1J!
15!
1q
0m
1k
0n
0<
1y
1n
1<
1o
1l
1E
0o
1{
1L
11
0J!
0B
0q
0<
0y
0l
0E
#595000
0!
0I
0J
04
#600300
0#
0c
14
0#!
0i
1e
0$!
0}
1$!
#603500
1!
1I
1J
04
1U!
1L!
1B
05!
11!
0/!
1p
0k
0{
12!
0L
01
#612000
0!
0I
0J
14
#620500
1!
1I
1J
04
1S!
0T!
0U!
1K!
0L!
03!
02!
01!
15!
1k
14!
13!
12!
04!
#629000
0!
0I
0J
14
#637500
1!
1I
1J
04
1U!
1L!
05!
1/!
1m
0p
0k
1<
#646000
0!
0I
0J
14
#654500
1!
1I
1J
04
1T!
0U!
0K!
0L!
1J!
15!
1q
0m
1k
0n
0<
1y
1n
1<
1o
1l
1E
0o
1{
1L
11
0J!
0B
0q
0<
0y
0l
0E
#663000
0!
0I
0J
14
#671500
1!
1I
1J
04
1U!
1L!
1B
05!
11!
0/!
1p
0k
0{
03!
02!
0L
01
14!
#680000
0!
0I
0J
14
#688500
1!
1I
1J
04
1R!
0S!
0T!
0U!
1K!
0L!
16!
17!
04!
13!
12!
01!
15!
1k
1@!
18!
07!
14!
02!
1A!
10!
08!
1C!
1i
1C
1K
12
1}
0$!
1f
0B!
0R!
06!
04!
0@!
0A!
00!
#697000
0!
0I
0J
14
#705500
1!
1I
1J
04
1B!
0%!
1g
1U!
1L!
1"!
05!
1/!
1m
0p
0k
0C!
1)!
0d
0i
1<
0C
0e
0K
1W
0V
02
1/
00
0}
0f
1f
#714000
0!
0I
0J
14
#722500
1!
1I
1J
04
1T!
0U!
0K!
0L!
1J!
15!
1q
0m
1k
0n
0<
1y
1n
1<
1o
1l
1E
0o
1{
0*!
1L
11
0J!
0B
0q
0<
0y
0l
0E
#731000
0!
0I
0J
14
#739500
1!
1I
1J
04
1U!
1L!
1B
05!
11!
0/!
1p
0k
0{
12!
1*!
0L
01
#748000
0!
0I
0J
14
#756500
1!
1I
1J
04
1S!
0T!
0U!
1K!
0L!
03!
02!
01!
15!
1k
14!
13!
12!
04!
#765000
0!
0I
0J
14
#773500
1!
1I
1J
04
1U!
1L!
05!
1/!
1m
0p
0k
1<
#782000
0!
0I
0J
14
#790500
1!
1I
1J
04
1T!
0U!
0K!
0L!
1J!
15!
1q
0m
1k
0n
0<
1y
1n
1<
1o
1l
1E
0o
1{
0*!
1L
11
0J!
0B
0q
0<
0y
0l
0E
#799000
0!
0I
0J
14
#807500
1!
1I
1J
04
1U!
1L!
1B
05!
11!
0/!
1p
0k
0{
03!
02!
1*!
0L
01
14!
#816000
0!
0I
0J
14
#824500
1!
1I
1J
04
1R!
0S!
0T!
0U!
1K!
0L!
16!
17!
04!
13!
12!
01!
15!
1k
1@!
18!
07!
14!
02!
1A!
10!
08!
1C!
1C
1K
12
0B!
0R!
06!
04!
0@!
0A!
00!
#833000
0!
0I
0J
14
#841500
1!
1I
1J
04
1B!
1U!
1L!
05!
1/!
1m
0p
0k
0C!
1<
0C
0K
02
#850000
0!
0I
0J
14
#858500
1!
1I
1J
04
1T!
0U!
0K!
0L!
1J!
15!
1q
0m
1k
0n
0<
1y
1n
1<
1o
1l
1E
0o
1{
0*!
1L
11
0J!
0B
0q
0<
0y
0l
0E
#867000
0!
0I
0J
14
#875500
1!
1I
1J
04
1U!
1L!
1B
05!
11!
0/!
1p
0k
0{
12!
1*!
0L
01
#884000
0!
0I
0J
14
#892500
1!
1I
1J
04
1S!
0T!
0U!
1K!
0L!
03!
02!
01!
15!
1k
14!
13!
12!
04!
#900300
1#
1c
14
#901000
0!
0I
0J
04
#909500
1!
1I
1J
14
1U!
1L!
05!
1/!
1m
0p
0k
1<
#918000
0!
0I
0J
04
#926500
1!
1I
1J
14
1T!
0U!
0K!
0L!
1J!
15!
1q
0m
1k
0n
0<
1y
1n
1<
1o
1l
1E
0o
1{
0*!
1L
11
0J!
0B
0q
0<
0y
0l
0E
#935000
0!
0I
0J
04
#943500
1!
1I
1J
14
1U!
1L!
1B
05!
11!
0/!
1p
0k
0{
03!
02!
1*!
0L
01
14!
#952000
0!
0I
0J
04
#960500
1!
1I
1J
14
1R!
0S!
0T!
0U!
1K!
0L!
16!
17!
04!
13!
12!
01!
15!
1k
1@!
18!
07!
14!
02!
1A!
10!
08!
1C!
1C
1K
12
0B!
0R!
06!
04!
0@!
0A!
00!
#969000
0!
0I
0J
04
#977500
1!
1I
1J
14
1B!
1U!
1L!
05!
1/!
1m
0p
0k
0C!
1<
0C
0K
02
#986000
0!
0I
0J
04
#994500
1!
1I
1J
14
1T!
0U!
0K!
0L!
1J!
15!
1q
0m
1k
0n
0<
1y
1n
1<
1o
1l
1E
0o
1{
0*!
1L
11
0J!
0B
0q
0<
0y
0l
0E
#1003000
0!
0I
0J
04
#1011500
1!
1I
1J
14
1U!
1L!
1B
05!
11!
0/!
1p
0k
0{
12!
1*!
0L
01
#1020000
0!
0I
0J
04
#1028500
1!
1I
1J
14
1S!
0T!
0U!
1K!
0L!
03!
02!
01!
15!
1k
14!
13!
12!
04!
#1037000
0!
0I
0J
04
#1045500
1!
1I
1J
14
1U!
1L!
05!
1/!
1m
0p
0k
1<
#1054000
0!
0I
0J
04
#1062500
1!
1I
1J
14
1T!
0U!
0K!
0L!
1J!
15!
1q
0m
1k
0n
0<
1y
1n
1<
1o
1l
1E
0o
1{
0*!
1L
11
0J!
0B
0q
0<
0y
0l
0E
#1071000
0!
0I
0J
04
#1079500
1!
1I
1J
14
1U!
1L!
1B
05!
11!
0/!
1p
0k
0{
03!
02!
1*!
0L
01
14!
#1088000
0!
0I
0J
04
#1096500
1!
1I
1J
14
1R!
0S!
0T!
0U!
1K!
0L!
16!
17!
04!
13!
12!
01!
15!
1k
1@!
18!
07!
14!
02!
1A!
10!
08!
1C!
1C
1K
12
0B!
0R!
06!
04!
0@!
0A!
00!
#1105000
0!
0I
0J
04
#1113500
1!
1I
1J
14
1B!
1U!
1L!
05!
1/!
1m
0p
0k
0C!
1<
0C
0K
02
#1122000
0!
0I
0J
04
#1130500
1!
1I
1J
14
1T!
0U!
0K!
0L!
1J!
15!
1q
0m
1k
0n
0<
1y
1n
1<
1o
1l
1E
0o
1{
0*!
1L
11
0J!
0B
0q
0<
0y
0l
0E
#1139000
0!
0I
0J
04
#1147500
1!
1I
1J
14
1U!
1L!
1B
05!
11!
0/!
1p
0k
0{
12!
1*!
0L
01
#1156000
0!
0I
0J
04
#1164500
1!
1I
1J
14
1S!
0T!
0U!
1K!
0L!
03!
02!
01!
15!
1k
14!
13!
12!
04!
#1173000
0!
0I
0J
04
#1181500
1!
1I
1J
14
1U!
1L!
05!
1/!
1m
0p
0k
1<
#1190000
0!
0I
0J
04
#1198500
1!
1I
1J
14
1T!
0U!
0K!
0L!
1J!
15!
1q
0m
1k
0n
0<
1y
1n
1<
1o
1l
1E
0o
1{
0*!
1L
11
0J!
0B
0q
0<
0y
0l
0E
#1200300
0#
0c
04
#1207000
0!
0I
0J
14
#1215500
1!
1I
1J
04
1U!
1L!
1B
05!
11!
0/!
1p
0k
0{
03!
02!
1*!
0L
01
14!
#1224000
0!
0I
0J
14
#1232500
1!
1I
1J
04
1R!
0S!
0T!
0U!
1K!
0L!
16!
17!
04!
13!
12!
01!
15!
1k
1@!
18!
07!
14!
02!
1A!
10!
08!
1C!
1C
1K
12
0B!
0R!
06!
04!
0@!
0A!
00!
#1241000
0!
0I
0J
14
#1249500
1!
1I
1J
04
1B!
1U!
1L!
05!
1/!
1m
0p
0k
0C!
1<
0C
0K
02
#1258000
0!
0I
0J
14
#1266500
1!
1I
1J
04
1T!
0U!
0K!
0L!
1J!
15!
1q
0m
1k
0n
0<
1y
1n
1<
1o
1l
1E
0o
1{
0*!
1L
11
0J!
0B
0q
0<
0y
0l
0E
#1275000
0!
0I
0J
14
#1283500
1!
1I
1J
04
1U!
1L!
1B
05!
11!
0/!
1p
0k
0{
12!
1*!
0L
01
#1292000
0!
0I
0J
14
#1300500
1!
1I
1J
04
1S!
0T!
0U!
1K!
0L!
03!
02!
01!
15!
1k
14!
13!
12!
04!
#1309000
0!
0I
0J
14
#1317500
1!
1I
1J
04
1U!
1L!
05!
1/!
1m
0p
0k
1<
#1326000
0!
0I
0J
14
#1334500
1!
1I
1J
04
1T!
0U!
0K!
0L!
1J!
15!
1q
0m
1k
0n
0<
1y
1n
1<
1o
1l
1E
0o
1{
0*!
1L
11
0J!
0B
0q
0<
0y
0l
0E
#1343000
0!
0I
0J
14
#1351500
1!
1I
1J
04
1U!
1L!
1B
05!
11!
0/!
1p
0k
0{
03!
02!
1*!
0L
01
14!
#1360000
0!
0I
0J
14
#1368500
1!
1I
1J
04
1R!
0S!
0T!
0U!
1K!
0L!
16!
17!
04!
13!
12!
01!
15!
1k
1@!
18!
07!
14!
02!
1A!
10!
08!
1C!
1C
1K
12
0B!
0R!
06!
04!
0@!
0A!
00!
#1377000
0!
0I
0J
14
#1385500
1!
1I
1J
04
1B!
1U!
1L!
05!
1/!
1m
0p
0k
0C!
1<
0C
0K
02
#1394000
0!
0I
0J
14
#1402500
1!
1I
1J
04
1T!
0U!
0K!
0L!
1J!
15!
1q
0m
1k
0n
0<
1y
1n
1<
1o
1l
1E
0o
1{
0*!
1L
11
0J!
0B
0q
0<
0y
0l
0E
#1411000
0!
0I
0J
14
#1419500
1!
1I
1J
04
1U!
1L!
1B
05!
11!
0/!
1p
0k
0{
12!
1*!
0L
01
#1428000
0!
0I
0J
14
#1436500
1!
1I
1J
04
1S!
0T!
0U!
1K!
0L!
03!
02!
01!
15!
1k
14!
13!
12!
04!
#1445000
0!
0I
0J
14
#1453500
1!
1I
1J
04
1U!
1L!
05!
1/!
1m
0p
0k
1<
#1462000
0!
0I
0J
14
#1470500
1!
1I
1J
04
1T!
0U!
0K!
0L!
1J!
15!
1q
0m
1k
0n
0<
1y
1n
1<
1o
1l
1E
0o
1{
0*!
1L
11
0J!
0B
0q
0<
0y
0l
0E
#1479000
0!
0I
0J
14
#1487500
1!
1I
1J
04
1U!
1L!
1B
05!
11!
0/!
1p
0k
0{
03!
02!
1*!
0L
01
14!
#1496000
0!
0I
0J
14
#1500300
1#
1c
04
#1504500
1!
1I
1J
14
1R!
0S!
0T!
0U!
1K!
0L!
16!
17!
04!
13!
12!
01!
15!
1k
1@!
18!
07!
14!
02!
1A!
10!
08!
1C!
1C
1K
12
0B!
0R!
06!
04!
0@!
0A!
00!
#1513000
0!
0I
0J
04
#1521500
1!
1I
1J
14
1B!
1U!
1L!
05!
1/!
1m
0p
0k
0C!
1<
0C
0K
02
#1530000
0!
0I
0J
04
#1538500
1!
1I
1J
14
1T!
0U!
0K!
0L!
1J!
15!
1q
0m
1k
0n
0<
1y
1n
1<
1o
1l
1E
0o
1{
0*!
1L
11
0J!
0B
0q
0<
0y
0l
0E
#1547000
0!
0I
0J
04
#1555500
1!
1I
1J
14
1U!
1L!
1B
05!
11!
0/!
1p
0k
0{
12!
1*!
0L
01
#1564000
0!
0I
0J
04
#1572500
1!
1I
1J
14
1S!
0T!
0U!
1K!
0L!
03!
02!
01!
15!
1k
14!
13!
12!
04!
#1581000
0!
0I
0J
04
#1589500
1!
1I
1J
14
1U!
1L!
05!
1/!
1m
0p
0k
1<
#1598000
0!
0I
0J
04
#1606500
1!
1I
1J
14
1T!
0U!
0K!
0L!
1J!
15!
1q
0m
1k
0n
0<
1y
1n
1<
1o
1l
1E
0o
1{
0*!
1L
11
0J!
0B
0q
0<
0y
0l
0E
#1615000
0!
0I
0J
04
#1623500
1!
1I
1J
14
1U!
1L!
1B
05!
11!
0/!
1p
0k
0{
03!
02!
1*!
0L
01
14!
#1632000
0!
0I
0J
04
#1640500
1!
1I
1J
14
1R!
0S!
0T!
0U!
1K!
0L!
16!
17!
04!
13!
12!
01!
15!
1k
1@!
18!
07!
14!
02!
1A!
10!
08!
1C!
1C
1K
12
0B!
0R!
06!
04!
0@!
0A!
00!
#1649000
0!
0I
0J
04
#1657500
1!
1I
1J
14
1B!
1U!
1L!
05!
1/!
1m
0p
0k
0C!
1<
0C
0K
02
#1666000
0!
0I
0J
04
#1674500
1!
1I
1J
14
1T!
0U!
0K!
0L!
1J!
15!
1q
0m
1k
0n
0<
1y
1n
1<
1o
1l
1E
0o
1{
0*!
1L
11
0J!
0B
0q
0<
0y
0l
0E
#1683000
0!
0I
0J
04
#1691500
1!
1I
1J
14
1U!
1L!
1B
05!
11!
0/!
1p
0k
0{
12!
1*!
0L
01
#1700000
0!
0I
0J
04
#1708500
1!
1I
1J
14
1S!
0T!
0U!
1K!
0L!
03!
02!
01!
15!
1k
14!
13!
12!
04!
#1717000
0!
0I
0J
04
#1725500
1!
1I
1J
14
1U!
1L!
05!
1/!
1m
0p
0k
1<
#1734000
0!
0I
0J
04
#1742500
1!
1I
1J
14
1T!
0U!
0K!
0L!
1J!
15!
1q
0m
1k
0n
0<
1y
1n
1<
1o
1l
1E
0o
1{
0*!
1L
11
0J!
0B
0q
0<
0y
0l
0E
#1751000
0!
0I
0J
04
#1759500
1!
1I
1J
14
1U!
1L!
1B
05!
11!
0/!
1p
0k
0{
03!
02!
1*!
0L
01
14!
#1768000
0!
0I
0J
04
#1776500
1!
1I
1J
14
1R!
0S!
0T!
0U!
1K!
0L!
16!
17!
04!
13!
12!
01!
15!
1k
1@!
18!
07!
14!
02!
1A!
10!
08!
1C!
1C
1K
12
0B!
0R!
06!
04!
0@!
0A!
00!
#1785000
0!
0I
0J
04
#1793500
1!
1I
1J
14
1B!
1U!
1L!
05!
1/!
1m
0p
0k
0C!
1<
0C
0K
02
#1800300
0#
0c
04
#1802000
0!
0I
0J
14
#1810500
1!
1I
1J
04
1T!
0U!
0K!
0L!
1J!
15!
1q
0m
1k
0n
0<
1y
1n
1<
1o
1l
1E
0o
1{
0*!
1L
11
0J!
0B
0q
0<
0y
0l
0E
#1819000
0!
0I
0J
14
#1827500
1!
1I
1J
04
1U!
1L!
1B
05!
11!
0/!
1p
0k
0{
12!
1*!
0L
01
#1836000
0!
0I
0J
14
#1844500
1!
1I
1J
04
1S!
0T!
0U!
1K!
0L!
03!
02!
01!
15!
1k
14!
13!
12!
04!
#1853000
0!
0I
0J
14
#1861500
1!
1I
1J
04
1U!
1L!
05!
1/!
1m
0p
0k
1<
#1870000
0!
0I
0J
14
#1878500
1!
1I
1J
04
1T!
0U!
0K!
0L!
1J!
15!
1q
0m
1k
0n
0<
1y
1n
1<
1o
1l
1E
0o
1{
0*!
1L
11
0J!
0B
0q
0<
0y
0l
0E
#1887000
0!
0I
0J
14
#1895500
1!
1I
1J
04
1U!
1L!
1B
05!
11!
0/!
1p
0k
0{
03!
02!
1*!
0L
01
14!
#1904000
0!
0I
0J
14
#1912500
1!
1I
1J
04
1R!
0S!
0T!
0U!
1K!
0L!
16!
17!
04!
13!
12!
01!
15!
1k
1@!
18!
07!
14!
02!
1A!
10!
08!
1C!
1C
1K
12
0B!
0R!
06!
04!
0@!
0A!
00!
#1921000
0!
0I
0J
14
#1929500
1!
1I
1J
04
1B!
1U!
1L!
05!
1/!
1m
0p
0k
0C!
1<
0C
0K
02
